<svg width="25" height="24" viewBox="0 0 25 24" fill="none" xmlns="http://www.w3.org/2000/svg">
<path fill-rule="evenodd" clip-rule="evenodd" d="M2.80078 2.83923H6.30343H7.12323L7.28401 3.61096L7.74134 5.80618H21.3442H22.5246L22.3306 6.924L21.3004 12.8579L21.1611 13.66H20.314H9.37757L9.80172 15.696H20.314V17.616H8.98191H8.16211L8.00133 16.8443L5.94095 6.95445L6.92154 6.76618L5.94095 6.95445L5.48362 4.75923H2.80078V2.83923ZM8.14134 7.72618L8.97757 11.74H19.4669L20.1637 7.72618H8.14134ZM11.6769 20.0054C11.6769 20.8889 10.9327 21.6034 10.0123 21.6034C9.09185 21.6034 8.34766 20.8889 8.34766 20.0054C8.34766 19.1218 9.09185 18.4261 10.0123 18.4261C10.9327 18.4261 11.6769 19.1218 11.6769 20.0054ZM18.2545 21.6034C19.1749 21.6034 19.9191 20.8889 19.9191 20.0054C19.9191 19.1218 19.1749 18.4261 18.2545 18.4261C17.334 18.4261 16.5898 19.1218 16.5898 20.0054C16.5898 20.8889 17.334 21.6034 18.2545 21.6034Z" fill="white"/>
</svg>
